<?xml version="1.0" encoding="UTF-8" standalone="no"?>
<svg
   xmlns:dc="http://purl.org/dc/elements/1.1/"
   xmlns:cc="http://creativecommons.org/ns#"
   xmlns:rdf="http://www.w3.org/1999/02/22-rdf-syntax-ns#"
   xmlns:svg="http://www.w3.org/2000/svg"
   xmlns="http://www.w3.org/2000/svg"
   xmlns:sodipodi="http://sodipodi.sourceforge.net/DTD/sodipodi-0.dtd"
   xmlns:inkscape="http://www.inkscape.org/namespaces/inkscape"
   id="bold"
   enable-background="new 0 0 24 24"
   height="512"
   viewBox="0 0 24 24"
   width="512"
   version="1.1"
   sodipodi:docname="logo.svg"
   inkscape:version="1.0 (6e3e5246a0, 2020-05-07)"
   inkscape:export-filename="/home/sda3/repos/hexify/genc-asiet/assets/icon.png"
   inkscape:export-xdpi="96"
   inkscape:export-ydpi="96">
  <metadata
     id="metadata19">
    <rdf:RDF>
      <cc:Work
         rdf:about="">
        <dc:format>image/svg+xml</dc:format>
        <dc:type
           rdf:resource="http://purl.org/dc/dcmitype/StillImage" />
      </cc:Work>
    </rdf:RDF>
  </metadata>
  <defs
     id="defs17" />
  <sodipodi:namedview
     pagecolor="#ffffff"
     bordercolor="#666666"
     borderopacity="1"
     objecttolerance="10"
     gridtolerance="10"
     guidetolerance="10"
     inkscape:pageopacity="0"
     inkscape:pageshadow="2"
     inkscape:window-width="1366"
     inkscape:window-height="704"
     id="namedview15"
     showgrid="false"
     inkscape:zoom="0.4609375"
     inkscape:cx="-184.05799"
     inkscape:cy="240.12192"
     inkscape:window-x="0"
     inkscape:window-y="27"
     inkscape:window-maximized="1"
     inkscape:current-layer="bold"
     inkscape:document-rotation="0" />
  <path
     style="opacity:1;fill:#2196f3;fill-opacity:0.40000001;stroke:none;stroke-width:0.28125;stroke-linecap:round;stroke-linejoin:round;stroke-miterlimit:4;stroke-dasharray:1.6875, 1.68750000000000000;stroke-dashoffset:0;stroke-opacity:1"
     d="M 1.7049788,1.3220339 H 15.888241 c 0.155812,0 0.279938,0.125443 0.28125,0.28125 0,0 2.206214,6.1843691 0.06244,7.4141992 C 12.289186,11.279338 8.84,15 8.7695969,20.135592 c -0.03228,2.354651 -7.0646181,0 -7.0646181,0 -0.1558125,0 -0.28125,-0.125437 -0.28125,-0.28125 V 1.6032839 c 0,-0.1558125 0.1254375,-0.28125 0.28125,-0.28125 z"
     id="rect984"
     inkscape:connector-curvature="0"
     sodipodi:nodetypes="sssssssss" />
  <circle
     style="opacity:1;fill:#0d47a1;fill-opacity:0.40000001;stroke:none;stroke-width:0.28125;stroke-linecap:round;stroke-linejoin:round;stroke-miterlimit:4;stroke-dasharray:1.6875, 1.68750000000000000;stroke-dashoffset:0;stroke-opacity:1"
     id="path986"
     cx="17.288136"
     cy="17.898304"
     r="3.2542372" />
  <path
     d="m8.84 15h-4.09c-.414 0-.75-.336-.75-.75s.336-.75.75-.75h4.09c.414 0 .75.336.75.75s-.336.75-.75.75z"
     id="path2" />
  <path
     d="m8.25 18h-3.5c-.414 0-.75-.336-.75-.75s.336-.75.75-.75h3.5c.414 0 .75.336.75.75s-.336.75-.75.75z"
     id="path4" />
  <path
     d="m8.25 21h-5.5c-1.517 0-2.75-1.233-2.75-2.75v-15.5c0-1.517 1.233-2.75 2.75-2.75h11.5c1.517 0 2.75 1.233 2.75 2.75v5.56c0 .414-.336.75-.75.75s-.75-.336-.75-.75v-5.56c0-.689-.561-1.25-1.25-1.25h-11.5c-.689 0-1.25.561-1.25 1.25v15.5c0 .689.561 1.25 1.25 1.25h5.5c.414 0 .75.336.75.75s-.336.75-.75.75z"
     id="path6" />
  <circle
     cx="8.5"
     cy="5"
     r="2"
     id="circle8" />
  <path
     d="m11.75 12h-6.5c-.414 0-.75-.336-.75-.75v-.5c0-1.517 1.233-2.75 2.75-2.75h2.5c1.517 0 2.75 1.233 2.75 2.75v.5c0 .414-.336.75-.75.75z"
     id="path10" />
  <path
     id="path826"
     d="M 22.103548,15.70135 21.75479,14.874167 c 0,0 0.809298,-1.826189 0.739036,-1.896451 l -1.071825,-1.046914 c -0.07474,-0.07218 -1.9022,0.760753 -1.9022,0.760753 L 18.67665,12.351101 c 0,0 -0.7467,-1.851101 -0.847623,-1.851101 h -1.513839 c -0.10476,0 -0.793329,1.85621 -0.793329,1.85621 l -0.842513,0.341733 c 0,0 -1.866429,-0.79333 -1.93797,-0.724983 l -1.071184,1.049468 c -0.0741,0.07345 0.778636,1.862598 0.778636,1.862598 l -0.34748,0.827181 c 0,0 -1.89198,0.727539 -1.89198,0.827183 v 1.48318 c 0,0.102204 1.896451,0.77736 1.896451,0.77736 l 0.34812,0.824626 c 0,0 -0.809936,1.827467 -0.739035,1.89773 l 1.072462,1.04819 c 0.07218,0.0709 1.900923,-0.763307 1.900923,-0.763307 l 0.843791,0.343009 c 0,0 0.744783,1.849822 0.846982,1.849822 h 1.51384 c 0.104112,0 0.794606,-1.856209 0.794606,-1.856209 l 0.843152,-0.341733 c 0,0 1.863874,0.793329 1.936053,0.724983 l 1.071825,-1.049467 c 0.07345,-0.07091 -0.779915,-1.86132 -0.779915,-1.86132 l 0.348758,-0.827183 c 0,0 1.892619,-0.730092 1.892619,-0.829738 v -1.481901 c 6.38e-4,-0.101568 -1.896452,-0.776082 -1.896452,-0.776082 z m -4.998864,3.711141 c -1.21682,0 -2.20944,-0.970901 -2.20944,-2.163449 0,-1.19127 0.99262,-2.162172 2.20944,-2.162172 1.218736,0 2.209439,0.970902 2.209439,2.162172 0,1.193187 -0.990703,2.163449 -2.209439,2.163449 z"
     inkscape:connector-curvature="0"
     style="stroke-width:0.63875091" />
  <g
     id="g830"
     transform="matrix(0.53229241,0,0,0.53229241,19.339129,5.9979285)" />
  <g
     id="g832"
     transform="matrix(0.53229241,0,0,0.53229241,19.339129,5.9979285)" />
  <g
     id="g834"
     transform="matrix(0.53229241,0,0,0.53229241,19.339129,5.9979285)" />
  <g
     id="g836"
     transform="matrix(0.53229241,0,0,0.53229241,19.339129,5.9979285)" />
  <g
     id="g838"
     transform="matrix(0.53229241,0,0,0.53229241,19.339129,5.9979285)" />
  <g
     id="g840"
     transform="matrix(0.53229241,0,0,0.53229241,19.339129,5.9979285)" />
  <g
     id="g842"
     transform="matrix(0.53229241,0,0,0.53229241,19.339129,5.9979285)" />
  <g
     id="g844"
     transform="matrix(0.53229241,0,0,0.53229241,19.339129,5.9979285)" />
  <g
     id="g846"
     transform="matrix(0.53229241,0,0,0.53229241,19.339129,5.9979285)" />
  <g
     id="g848"
     transform="matrix(0.53229241,0,0,0.53229241,19.339129,5.9979285)" />
  <g
     id="g850"
     transform="matrix(0.53229241,0,0,0.53229241,19.339129,5.9979285)" />
  <g
     id="g852"
     transform="matrix(0.53229241,0,0,0.53229241,19.339129,5.9979285)" />
  <g
     id="g854"
     transform="matrix(0.53229241,0,0,0.53229241,19.339129,5.9979285)" />
  <g
     id="g856"
     transform="matrix(0.53229241,0,0,0.53229241,19.339129,5.9979285)" />
  <g
     id="g858"
     transform="matrix(0.53229241,0,0,0.53229241,19.339129,5.9979285)" />
  <g
     id="g862"
     transform="matrix(0.53229241,0,0,0.53229241,19.339129,5.9979285)" />
  <g
     id="g864"
     transform="matrix(0.53229241,0,0,0.53229241,19.339129,5.9979285)" />
  <g
     id="g866"
     transform="matrix(0.53229241,0,0,0.53229241,19.339129,5.9979285)" />
  <g
     id="g868"
     transform="matrix(0.53229241,0,0,0.53229241,19.339129,5.9979285)" />
  <g
     id="g870"
     transform="matrix(0.53229241,0,0,0.53229241,19.339129,5.9979285)" />
  <g
     id="g872"
     transform="matrix(0.53229241,0,0,0.53229241,19.339129,5.9979285)" />
  <g
     id="g874"
     transform="matrix(0.53229241,0,0,0.53229241,19.339129,5.9979285)" />
  <g
     id="g876"
     transform="matrix(0.53229241,0,0,0.53229241,19.339129,5.9979285)" />
  <g
     id="g878"
     transform="matrix(0.53229241,0,0,0.53229241,19.339129,5.9979285)" />
  <g
     id="g880"
     transform="matrix(0.53229241,0,0,0.53229241,19.339129,5.9979285)" />
  <g
     id="g882"
     transform="matrix(0.53229241,0,0,0.53229241,19.339129,5.9979285)" />
  <g
     id="g884"
     transform="matrix(0.53229241,0,0,0.53229241,19.339129,5.9979285)" />
  <g
     id="g886"
     transform="matrix(0.53229241,0,0,0.53229241,19.339129,5.9979285)" />
  <g
     id="g888"
     transform="matrix(0.53229241,0,0,0.53229241,19.339129,5.9979285)" />
  <g
     id="g890"
     transform="matrix(0.53229241,0,0,0.53229241,19.339129,5.9979285)" />
</svg>
